{
  "userdata": [
    {
      "id": "u001",
      "firstName": "bill",
      "lastName": "gates",
      "income": 50000,
      "dob": "1965-12-20T18:30:00.000Z",
      "company": "Microsoft",
      "isWorking": true,
      "image": "https://pbs.twimg.com/profile_images/1564398871996174336/M-hffw5a_400x400.jpg",
      "votes": 120,
      "comments": [
        {
          "stars": 4,
          "body": "Like 👍 your work",
          "email": "foo@test"
        },
        {
          "stars": 3,
          "body": "Awesome work",
          "email": "bar@test"
        }
      ]
    },
    {
      "id": "u002",
      "firstName": "elon",
      "lastName": "musk",
      "income": 40000,
      "dob": "1965-01-01T18:30:00.000Z",
      "company": "Amazon",
      "isWorking": true,
      "image": "https://upload.wikimedia.org/wikipedia/commons/thumb/4/49/Elon_Musk_2015.jpg/408px-Elon_Musk_2015.jpg",
      "votes": 180,
      "comments": [
        {
          "stars": 5,
          "body": "Luv ♥ your work",
          "email": "foo@test"
        }
      ]
    },
    {
      "id": "u003",
      "firstName": "steve",
      "lastName": "jobs",
      "income": 0,
      "dob": "1965-08-13T18:30:00.000Z",
      "company": "Apple",
      "isWorking": false,
      "image": "https://thumbs.dreamstime.com/b/steve-jobs-portrait-illustration-manually-painted-capturing-apple-genius-56617906.jpg",
      "votes": 210,
      "comments": []
    }
  ],
  "admins": [
    {
      "username": "test@test",
      "password": "$2a$10$Sp7mA0IY.ueU/jR9BUB/lunp0HmHUrxNfHlQn5ofHXjARJlM19Lh.",
      "hobbies": [
        {
          "name": "yoga",
          "frequency": "3"
        }
      ],
      "id": 1
    }
  ],
  "posts": []
}